13 Dimension reduction | bluebook BIOSCI738
…
13.3.2 Athletes

You'll find the athletes.csv file on CANVAS.

athletes <- read_csv("athletes.csv")

athletes

## # A tibble: 33 x 10
##     m100  long weight highj  m400  m110  disc  pole javel m1500
##    <dbl> <dbl>  <dbl> <dbl> <dbl> <dbl> <dbl> <dbl> <dbl> <dbl>
##  1  11.2  7.43   15.5  2.27  48.9  15.1  49.3   4.7  61.3  269.
##  2  10.9  7.45   15.0  1.97  47.7  14.5  44.4   5.1  61.8  273.
##  3  11.2  7.44   14.2  1.97  48.3  14.8  43.7   5.2  64.2  263.
##  4  10.6  7.38   15.0  2.03  49.1  14.7  44.8   4.9  64.0  285.
##  5  11.0  7.43   12.9  1.97  47.4  14.4  41.2   5.2  57.5  257.
##  6  10.8  7.72   13.6  2.12  48.3  14.2  43.1   4.9  52.2  274.
##  7  11.2  7.05   14.1  2.06  49.3  14.4  41.7   5.7  61.6  291.
##  8  11.0  6.95   15.3  2     48.2  14.4  41.3   4.8  63    266.
##  9  11.2  7.12   14.5  2.03  49.2  14.7  42.4   4.9  66.5  270.
## 10  11.2  7.28   15.2  1.97  48.6  14.8  48.0   5.2  59.5  292.
## #  with 23 more rows
…
Grass and Scrub intermediate?

13.4 Reality check: reducing noise...

set.seed(1234) ## just for reproduciblity
noise <- as_tibble(replicate(10,rnorm(200, mean = 50, sd = 10)))
noise

## # A tibble: 200 x 10
##       V1    V2    V3    V4    V5    V6    V7    V8    V9   V10
##    <dbl> <dbl> <dbl> <dbl> <dbl> <dbl> <dbl> <dbl> <dbl> <dbl>
##  1  37.9  54.9  37.7  53.1  39.8  37.9  36.0  29.9  47.5  44.7
##  2  52.8  57.0  50.4  56.1  36.1  53.0  73.8  34.4  37.8  45.0
##  3  60.8  51.9  45.8  33.1  49.5  34.6  58.7  69.6  49.3  38.5
##  4  26.5  57.0  41.0  57.8  68.1  56.4  34.6  48.2  63.6  51.3
##  5  54.3  53.1  54.2  50.1  49.0  57.0  61.3  63.6  45.4  54.7
##  6  55.1  57.6  51.5  48.2  57.8  30.9  60.4  66.5  50.7  48.1
##  7  44.3  68.4  64.6  61.1  39.0  59.4  55.9  51.2  57.8  33.8
##  8  44.5  61.1  38.8  64.8  47.8  47.8  54.0  50.0  34.1  46.0
##  9  44.4  50.3  44.8  38.5  55.7  43.3  51.4  52.0  36.3  54.1
## 10  41.1  38.9  49.3  60.1  46.5  54.5  56.2  56.8  40.7  42.8
## #  with 190 more rows
…
