Linear mixed-effect models (LMMs) | Advanced Biological Data Analysis
…
##    Disease   Organ Predicted means Standard error Df LL of 95% CI UL of 95% CI
## 1 Diabetic innerLV        7.873333      0.5405835  4     6.372433     9.374234
## 2 Diabetic outerLV        9.990000      0.5405835  4     8.489099    11.490901
## 3  Healthy innerLV        9.823333      0.5405835  4     8.322433    11.324234
## 4  Healthy outerLV       10.100000      0.5405835  4     8.599099    11.600901

A repeated measures design (time points as factors)

liver <- read_csv("https://raw.githubusercontent.com/STATS-UOA/databunker/master/data/repeated_measures_liver.csv")
## change time to factor
liver$Time <- as.factor(liver$Time) ## this is important
liver$Treatment <- as.factor(liver$Treatment)
liver

## # A tibble: 210 × 4
##    Animal   Treatment Time  Glucose
##    <chr>    <fct>     <fct>   <dbl>
##  1 Control1 Control   0        1.60
##  2 Control1 Control   5        1.28
##  3 Control1 Control   10       1.60
##  4 Control1 Control   15       1.58
##  5 Control1 Control   20       1.28
##  6 Control1 Control   25       1.44
##  7 Control1 Control   30       1.18
##  8 Control2 Control   0        0.84
##  9 Control2 Control   5        0.64
## 10 Control2 Control   10       0.7 
## # … with 200 more rows
…
