Linear Discriminant Analysis (LDA) | Advanced Biological Data Analysis
…
## 
## ℹ Use `spec()` to retrieve the full column specification for this data.
## ℹ Specify the column types or set `show_col_types = FALSE` to quiet this message.

library(tidyverse)
diabetes <- read_csv("diabetes.csv")

The data

diabetes$group <- factor(diabetes$group)
diabetes

## # A tibble: 144 × 7
##       id relwt glufast glutest steady insulin group
##    <dbl> <dbl>   <dbl>   <dbl>  <dbl>   <dbl> <fct>
##  1     1  0.81      80     356    124      55 3    
##  2     3  0.94     105     319    143     105 3    
##  3     5  1         90     323    240     143 3    
##  4     7  0.91     100     350    221     119 3    
##  5     9  0.99      97     379    142      98 3    
##  6    11  0.9       91     353    221      53 3    
##  7    13  0.96      78     290    136     142 3    
##  8    15  0.74      86     312    208      68 3    
##  9    17  1.1       90     364    152      76 3    
## 10    19  0.83      85     296    116      60 3    
## # … with 134 more rows
…
