Logistic regression | Advanced Biological Data Analysis
…
but if \(p_i\) is close to 0 or 1, \(n_i\) must be much larger.

However, if our chi-squared approximation assumptions are not met we should find another way.

An example: lobsters

Let us, again, consider data from the published article Influence of predator identity on the strength of predator avoidance responses in lobsters..

The authors were interested in how a juvenile lobster’s size was related to its vulnerability to predation. In total, 159 juvenile lobsters were collected from their natural habitat in the Gulf of Maine, USA, and the length of each lobster’s carapace (upper shell) was measured to the nearest 3 mm, size. The lobsters were then tethered to the ocean floor for 24 hours. Any missing lobsters were assumed to have been consumed by a predator, while the surviving lobsters were released (i.e., survived = 1 if lobster survived, 0 otherwise).

library(tidyverse)
data <- read_csv("https://raw.githubusercontent.com/STATS-UOA/databunker/master/data/lobster.csv")
data 
## # A tibble: 159 × 2
##     size survived
##    <dbl>    <dbl>
##  1    42        0
##  2    36        0
##  3    51        1
##  4    33        0
##  5    33        1
##  6    45        1
##  7    54        1
##  8    48        0
##  9    39        0
## 10    48        1
## # ℹ 149 more rows
…
