Poisson regression | Advanced Biological Data Analysis
…
However, if our chi-squared approximation assumptions are not met we should find another way. See the example below for a simulation based approach.

An example: bird abundance

A recent publication Partitioning beta diversity to untangle mechanisms underlying the assembly of bird communities in Mediterranean olive groves investigates bird abundance data for a number of olive farms. Each farm is catalogued according to the level of landscape complexity (high; intermediate; low) and the type of management of the ground cover (extensive or intensive).

library(tidyverse)
data <- read_delim("https://raw.githubusercontent.com/STATS-UOA/databunker/master/data/bird_abundance.csv")
birds <- data %>%
  select(c("OliveFarm","Management","Turdus_merula","Phylloscopus_collybita")) %>%
  pivot_longer(., c(-OliveFarm, -Management), "Species", values_to = "Count") 
birds

## # A tibble: 80 × 4
##    OliveFarm   Management Species                Count
##    <chr>       <chr>      <chr>                  <dbl>
##  1 MORALEDAEXP intensive  Turdus_merula             21
##  2 MORALEDAEXP intensive  Phylloscopus_collybita    14
##  3 MORALEDACON extensive  Turdus_merula             29
##  4 MORALEDACON extensive  Phylloscopus_collybita    21
##  5 OJUELOSEXP  intensive  Turdus_merula              5
##  6 OJUELOSEXP  intensive  Phylloscopus_collybita    31
##  7 OJUELOSCON  extensive  Turdus_merula             12
##  8 OJUELOSCON  extensive  Phylloscopus_collybita    52
##  9 LUNAEXP     extensive  Turdus_merula            103
## 10 LUNAEXP     extensive  Phylloscopus_collybita    10
## # … with 70 more rows
…
