TL;DR | Advanced Biological Data Analysis
…
At each location twenty pitfall traps were placed in each of four habitats (Forest, Grass, Urban, Scrub) and left for ten days. At the end of this sampling all individuals in the pitfall traps were identified and summed at each site (location x habitat). This sampling protocol was repeated for 3 months over summer 2011.

## Rows: 30 Columns: 8

## ── Column specification ────────────────────────────────────────────────────────
## Delimiter: ","
## chr (3): Location, Habitat, Site
## dbl (5): Month, Nyl, Phe, Tet, Pac

## 
## ℹ Use `spec()` to retrieve the full column specification for this data.
## ℹ Specify the column types or set `show_col_types = FALSE` to quiet this message.

## # A tibble: 30 × 8
##    Location Habitat Month Site    Nyl   Phe   Tet   Pac
##    <chr>    <chr>   <dbl> <chr> <dbl> <dbl> <dbl> <dbl>
##  1 West     Forest      1 WF1       0     0     0   157
##  2 West     Grass       1 WG1       0     2     7    37
##  3 West     Urban       1 WU1       3     7     0     0
##  4 West     Forest      2 WF2       0     0     0    31
##  5 West     Grass       2 WG2       5     0    25     0
##  6 West     Forest      3 WF3       0     0     0    21
##  7 West     Grass       3 WG3       0     3     2     1
##  8 West     Urban       3 WU3       0     1     0     0
##  9 Central  Forest      1 CF1       0     0     0     1
## 10 Central  Grass       1 CG1       0     3    22     2
## # … with 20 more rows
…
