Your data and R | Advanced Biological Data Analysis
…
To read these data into RStudio you have two options:

Download the paua.csv file from my online repository into a folder on your local computer. In the Environment pane click Import Dataset > ** From Text (readr)** > Browse > Choose your file, remembering which folder you downloaded it to. this is where .Rproj is useful > Another pane should pop up, check the data looks as you might expect > Import

Or, you can download directly using the URL (or a any other given path)

paua <- readr::read_csv("https://raw.githubusercontent.com/STATS-UOA/databunker/master/data/paua.csv")

Explore your data

Let's have a look at your data in the Console

paua

## # A tibble: 60 × 3
##    Species            Length   Age
##    <chr>               <dbl> <dbl>
##  1 Haliotis iris        1.8   1.50
##  2 Haliotis australis   5.4  11.9 
##  3 Haliotis australis   4.8   5.42
##  4 Haliotis iris        5.75  4.50
##  5 Haliotis iris        5.65  5.50
##  6 Haliotis iris        2.8   2.50
##  7 Haliotis australis   5.9   6.49
##  8 Haliotis iris        3.75  5.00
##  9 Haliotis australis   7.2   8.56
## 10 Haliotis iris        4.25  5.50
## # … with 50 more rows
…
